{
  "standard_cleaning": [
    [120,140,160,195,205,230],
    [140,160,195,205,230,250],
    [160,195,205,230,250,280],
    [195,205,230,250,280,300],
    [215,240,260,280,300,330],
    [240,260,280,300,330,360]
  ],
  "deep_cleaning":[
    [140,160,195,205,230,250],
    [160,195,205,230,250,280],
    [195,205,230,250,280,300],
    [215,240,260,280,300,330],
    [240,260,280,300,330,360],
    [260,280,300,330,360,380]
  ],
  "move_cleaning":[
    [140,160,195,205,230,250],
    [160,195,205,230,250,280],
    [195,205,230,250,280,300],
    [215,240,260,280,300,330],
    [240,260,280,300,330,360],
    [260,280,300,330,360,380]
  ],
  "postconstruction_cleaning":[
    [140,160,195,205,230,250],
    [160,195,205,230,250,280],
    [195,205,230,250,280,300],
    [215,240,260,280,300,330],
    [240,260,280,300,330,360],
    [260,280,300,330,360,380]
  ]
}
